{
	"info": {
		"_postman_id": "f28e5efe-170f-4e00-afad-ff2eb340e5ae",
		"name": "TRE API Unificado QA",
		"schema": "https://schema.getpostman.com/json/collection/v2.1.0/collection.json"
	},
	"item": [
		{
			"name": "Movimiento Por Tarjeta TRE",
			"event": [
				{
					"listen": "test",
					"script": {
						"exec": [
							"var nombre = pm.info.requestName.substring(0, pm.info.requestName.length)\r",
							"\r",
							"pm.test(\"TC-01 - Validar status Servicio - \" + nombre, function () {\r",
							"    if(pm.response.code != \"200\" && pm.response.code != \"202\" && pm.response.code != \"400\" && pm.response.code != \"402\"){\r",
							"        console.log(\"Codigo: \" + pm.response.code) \r",
							"        console.log(pm.response.text())\r",
							"    }\r",
							"    pm.expect(pm.response.code).to.be.oneOf([200, 202, 400, 402])\r",
							"});"
						],
						"type": "text/javascript"
					}
				}
			],
			"request": {
				"method": "GET",
				"header": [
					{
						"key": "Content-Type",
						"value": "application/json",
						"type": "text"
					},
					{
						"key": "x-api-key",
						"value": "qNArw0ednO8KXdTqEAz8UaNWdnvh1Hrk34zSgiyQ",
						"type": "text"
					}
				],
				"url": {
					"raw": "https://api-tre-sodexo.ripleyqa.com/sales/v1/giftcard/1126913/listTransaccions",
					"protocol": "https",
					"host": [
						"api-tre-sodexo",
						"ripleyqa",
						"com"
					],
					"path": [
						"sales",
						"v1",
						"giftcard",
						"1126913",
						"listTransaccions"
					]
				}
			},
			"response": [
				{
					"name": "Recorded OK",
					"originalRequest": {
						"method": "POST",
						"header": [
							{
								"key": "Accept",
								"type": "text",
								"value": "application/xml"
							},
							{
								"key": "Content-Type",
								"name": "Content-Type",
								"value": "application/xml",
								"type": "text"
							},
							{
								"key": "Consumer-Countrycode",
								"value": "CL",
								"type": "text"
							}
						],
						"body": {
							"mode": "raw",
							"raw": "<?xml version=\"1.0\" encoding=\"UTF-8\"?>\n<ChargeUpd>\n    <NumEmbarque>14897</NumEmbarque>\n    <Contenedor>G</Contenedor>\n    <Factura>14897</Factura>\n    <PO>14897</PO>\n    <SKU>14897</SKU>\n    <Secuencia>14897</Secuencia>\n    <TechKey>14897</TechKey>\n    <CostoCalculado>14897</CostoCalculado>\n    <CostoAnterior>14897</CostoAnterior>\n    <FechaCosteo>20-MAY-19</FechaCosteo>\n    <TipoCosteo>1</TipoCosteo>\n    <File1>/home/avatar/Desktop/File1</File1>\n    <File2>/home/avatar/Desktop/File2</File2>\n    <File3>/home/avatar/Desktop/File3</File3>\n    <File4>/home/avatar/Desktop/File4</File4>\n    <File5>/home/avatar/Desktop/File5</File5>\n    <File6>/home/avatar/Desktop/File6</File6>\n    <File7>/home/avatar/Desktop/File7</File7>\n    <File8>/home/avatar/Desktop/File8</File8>\n    <File9>/home/avatar/Desktop/File9</File9>\n    <File10>/home/avatar/Desktop/File10</File10>\n</ChargeUpd>"
						},
						"url": {
							"raw": "http://msa.ripleydv.com/msa/logistica/ordencompra/v1/ActualizacionCostos",
							"protocol": "http",
							"host": [
								"msa",
								"ripleydv",
								"com"
							],
							"path": [
								"msa",
								"logistica",
								"ordencompra",
								"v1",
								"ActualizacionCostos"
							]
						}
					},
					"status": "OK",
					"code": 200,
					"_postman_previewlanguage": "xml",
					"header": [
						{
							"key": "Content-Type",
							"value": "application/xml;charset=UTF-8"
						},
						{
							"key": "Date",
							"value": "Fri, 17 May 2019 21:40:07 GMT"
						},
						{
							"key": "Content-Length",
							"value": "185"
						},
						{
							"key": "Connection",
							"value": "keep-alive"
						}
					],
					"cookie": [],
					"body": "<?xml version=\"1.0\" encoding=\"UTF-8\"?>\n<body>\n    <cabecera>\n        <nuEstadoProceso>0</nuEstadoProceso>\n        <vcMensajeProceso>Ok</vcMensajeProceso>\n        <vcMensajeProceso>3</vcMensajeProceso>\n    </cabecera>\n</body>"
				}
			]
		},
		{
			"name": "QA TRE - AutorizarVenta",
			"event": [
				{
					"listen": "test",
					"script": {
						"exec": [
							"var nombre = pm.info.requestName.substring(0, pm.info.requestName.length)\r",
							"\r",
							"pm.test(\"TC-02 - Validar status Servicio - \" + nombre, function () {\r",
							"    if(pm.response.code != \"200\" && pm.response.code != \"202\" && pm.response.code != \"400\" && pm.response.code != \"402\"){\r",
							"        console.log(\"Codigo: \" + pm.response.code) \r",
							"        console.log(pm.response.text())\r",
							"    }\r",
							"    pm.expect(pm.response.code).to.be.oneOf([200, 202, 400, 402])\r",
							"});"
						],
						"type": "text/javascript"
					}
				}
			],
			"request": {
				"auth": {
					"type": "noauth"
				},
				"method": "POST",
				"header": [
					{
						"key": "Content-Type",
						"name": "Content-Type",
						"type": "text",
						"value": "application/json"
					},
					{
						"key": "x-api-key",
						"type": "text",
						"value": "mO1M2pariPTBuAq9b40s5kyk416avDS4DYw2JO71"
					}
				],
				"body": {
					"mode": "raw",
					"raw": "{\r\n   \"articulos\":{\r\n      \"codigo\":[\r\n         \"2061164000006\"\r\n      ],\r\n      \"flag\":[\r\n         \"0\"\r\n      ],\r\n      \"monto\":[\r\n         \"3590\"\r\n      ]\r\n   },\r\n   \"clave\":\"524320\",\r\n   \"montoTRE\":\"2000\",\r\n   \"nroOC\":\"1116\",\r\n   \"nroTarjeta\":\"1126736\",\r\n   \"tipoOperacion\":\"0\",\r\n   \"totalCompra\":\"26570\",\r\n   \"accionTRE\":\"A\"\r\n}",
					"options": {
						"raw": {
							"language": "json"
						}
					}
				},
				"url": {
					"raw": "https://ofpny1rcz4.execute-api.us-east-1.amazonaws.com/qa/tre/api/atresource",
					"protocol": "https",
					"host": [
						"ofpny1rcz4",
						"execute-api",
						"us-east-1",
						"amazonaws",
						"com"
					],
					"path": [
						"qa",
						"tre",
						"api",
						"atresource"
					]
				}
			},
			"response": []
		},
		{
			"name": "QA TRE - ConsultaTRE",
			"event": [
				{
					"listen": "test",
					"script": {
						"exec": [
							"var nombre = pm.info.requestName.substring(0, pm.info.requestName.length)\r",
							"\r",
							"pm.test(\"TC-03 - Validar status Servicio - \" + nombre, function () {\r",
							"    if(pm.response.code != \"200\" && pm.response.code != \"202\" && pm.response.code != \"400\" && pm.response.code != \"402\"){\r",
							"        console.log(\"Codigo: \" + pm.response.code) \r",
							"        console.log(pm.response.text())\r",
							"    }\r",
							"    pm.expect(pm.response.code).to.be.oneOf([200, 202, 400, 402])\r",
							"});"
						],
						"type": "text/javascript"
					}
				}
			],
			"request": {
				"auth": {
					"type": "noauth"
				},
				"method": "POST",
				"header": [
					{
						"key": "Content-Type",
						"name": "Content-Type",
						"value": "application/json",
						"type": "text"
					},
					{
						"key": "SoapAction",
						"value": "consultaTRE",
						"type": "text"
					},
					{
						"key": "x-api-key",
						"value": "Ab5y7npXkvethluAn2VX7psulWlsXNEadlmkm8qi",
						"type": "text"
					}
				],
				"body": {
					"mode": "raw",
					"raw": "{\n  \"nroTarjeta\": \"9999\",\n  \"tipoEntrada\": \"3\"\n}"
				},
				"url": {
					"raw": "https://bisvtt0m7e.execute-api.us-east-1.amazonaws.com/qa/apitre/consultaTRE",
					"protocol": "https",
					"host": [
						"bisvtt0m7e",
						"execute-api",
						"us-east-1",
						"amazonaws",
						"com"
					],
					"path": [
						"qa",
						"apitre",
						"consultaTRE"
					]
				}
			},
			"response": [
				{
					"name": "Recorded OK",
					"originalRequest": {
						"method": "POST",
						"header": [
							{
								"key": "Content-Type",
								"name": "Content-Type",
								"value": "application/json",
								"type": "text"
							},
							{
								"key": "SoapAction",
								"value": "consultaTRE",
								"type": "text"
							}
						],
						"body": {
							"mode": "raw",
							"raw": "{\n  \"nroTarjeta\": \"9999\",\n  \"tipoEntrada\": \"3\"\n}"
						},
						"url": {
							"raw": "{{SCHEME}}://{{HOST}}:{{PORT}}/{{APIC_ORG}}/apitre/ServiciosTRE/ConsultaTREService",
							"protocol": "{{SCHEME}}",
							"host": [
								"{{HOST}}"
							],
							"port": "{{PORT}}",
							"path": [
								"{{APIC_ORG}}",
								"apitre",
								"ServiciosTRE",
								"ConsultaTREService"
							]
						}
					},
					"status": "OK",
					"code": 200,
					"_postman_previewlanguage": "json",
					"header": [
						{
							"key": "Access-Control-Allow-Methods",
							"value": "POST"
						},
						{
							"key": "Access-Control-Allow-Origin",
							"value": "*"
						},
						{
							"key": "Access-Control-Expose-Headers",
							"value": "APIm-Debug-Trans-Id, X-RateLimit-Limit, X-RateLimit-Remaining, X-RateLimit-Reset, X-Global-Transaction-ID"
						},
						{
							"key": "Consumer-SysCode",
							"value": "apitre-application"
						},
						{
							"key": "Content-Encoding",
							"value": "gzip"
						},
						{
							"key": "Content-Language",
							"value": "en-US"
						},
						{
							"key": "Content-Type",
							"value": "application/json"
						},
						{
							"key": "Date",
							"value": "Mon, 14 Oct 2019 20:14:48 GMT"
						},
						{
							"key": "Result-Description",
							"value": "Exito"
						},
						{
							"key": "Result-Status",
							"value": "OK"
						},
						{
							"key": "Server",
							"value": "WebSphere Application Server/7.0"
						},
						{
							"key": "Trace-ReqTimestamp",
							"value": "2019-10-14T16:25:59"
						},
						{
							"key": "Trace-RspTimestamp",
							"value": "2019-10-14T16:25:59"
						},
						{
							"key": "Trace-Service-Code",
							"value": "consulta-trev1.0.0POST_/ConsultaTREService"
						},
						{
							"key": "Trace-Service-Name",
							"value": "consulta-tre v1.0.0"
						},
						{
							"key": "Trace-Service-Operation",
							"value": "POST /ConsultaTREService"
						},
						{
							"key": "User-Agent",
							"value": "IBM-APIConnect/not"
						},
						{
							"key": "X-Backside-Transport",
							"value": "OK OK"
						},
						{
							"key": "X-Global-Transaction-ID",
							"value": "e7b069025da4d9d7006e89b1"
						},
						{
							"key": "X-RateLimit-Limit",
							"value": "name=default,100;"
						},
						{
							"key": "X-RateLimit-Remaining",
							"value": "name=default,96;"
						},
						{
							"key": "transfer-encoding",
							"value": "chunked"
						},
						{
							"key": "Connection",
							"value": "keep-alive"
						}
					],
					"cookie": [],
					"body": "{\n    \"deptoCodigo\": \"0\",\n    \"deptoDescripcion\": \"\",\n    \"error\": {\n        \"codigo\": \"1\",\n        \"glosa\": \"Tarjeta no Existe\"\n    },\n    \"estadoTarjeta\": \"\",\n    \"fechaVcto\": \"\",\n    \"montoDisponible\": \"\",\n    \"montoInicial\": \"\",\n    \"nombreEmpresa\": \"\",\n    \"nroTarjeta\": \"\",\n    \"nroTarjetaDV\": \"\",\n    \"rutEmpresa\": \"\",\n    \"sucursalCodigo\": \"0\",\n    \"sucursalDescripcion\": \"\",\n    \"tipoFacturacion\": \"0\"\n}"
				}
			]
		},
		{
			"name": "QA TRE - CambioClave",
			"event": [
				{
					"listen": "test",
					"script": {
						"exec": [
							"var nombre = pm.info.requestName.substring(0, pm.info.requestName.length)\r",
							"\r",
							"pm.test(\"TC-04 - Validar status Servicio - \" + nombre, function () {\r",
							"    if(pm.response.code != \"200\" && pm.response.code != \"202\" && pm.response.code != \"400\" && pm.response.code != \"402\"){\r",
							"        console.log(\"Codigo: \" + pm.response.code) \r",
							"        console.log(pm.response.text())\r",
							"    }\r",
							"    pm.expect(pm.response.code).to.be.oneOf([200, 202, 400, 402])\r",
							"});"
						],
						"type": "text/javascript"
					}
				}
			],
			"request": {
				"auth": {
					"type": "noauth"
				},
				"method": "POST",
				"header": [
					{
						"key": "x-ibm-client-id",
						"value": "c1e991671bc37b8dc9878feb12d2b460",
						"disabled": true
					},
					{
						"key": "Content-Type",
						"value": "application/json"
					},
					{
						"key": "x-api-key",
						"value": "0bQuM1jZDv3b7HqzcJeEX9yXws0fxDsZ3qRVMXms",
						"type": "text"
					}
				],
				"body": {
					"mode": "raw",
					"raw": "{\n    \"clave\":\"089095\",\n    \"nroTarjeta\":\"1222359\",\n    \"claveNueva\":\"089095\",\n    \"accion\":\"M\"\n}\n"
				},
				"url": {
					"raw": "https://92i7wtklb9.execute-api.us-east-1.amazonaws.com/qa/tre/api/cc",
					"protocol": "https",
					"host": [
						"92i7wtklb9",
						"execute-api",
						"us-east-1",
						"amazonaws",
						"com"
					],
					"path": [
						"qa",
						"tre",
						"api",
						"cc"
					]
				}
			},
			"response": []
		},
		{
			"name": "QA TRE - ValidaTarjeta",
			"event": [
				{
					"listen": "test",
					"script": {
						"exec": [
							"var nombre = pm.info.requestName.substring(0, pm.info.requestName.length)\r",
							"\r",
							"pm.test(\"TC-05 - Validar status Servicio - \" + nombre, function () {\r",
							"    if(pm.response.code != \"200\" && pm.response.code != \"202\" && pm.response.code != \"400\" && pm.response.code != \"402\"){\r",
							"        console.log(\"Codigo: \" + pm.response.code) \r",
							"        console.log(pm.response.text())\r",
							"    }\r",
							"    pm.expect(pm.response.code).to.be.oneOf([200, 202, 400, 402])\r",
							"});"
						],
						"type": "text/javascript"
					}
				}
			],
			"request": {
				"auth": {
					"type": "noauth"
				},
				"method": "POST",
				"header": [
					{
						"key": "x-ibm-client-id",
						"value": "c1e991671bc37b8dc9878feb12d2b460",
						"disabled": true
					},
					{
						"key": "Content-Type",
						"value": "application/json"
					},
					{
						"key": "x-api-key",
						"type": "text",
						"value": "0bQuM1jZDv3b7HqzcJeEX9yXws0fxDsZ3qRVMXms"
					}
				],
				"body": {
					"mode": "raw",
					"raw": "{\n\n\"clave\":\"717999\",\n\"nroTarjeta\":\"1220820\",\n\"accion\":\"A\"\n\n}"
				},
				"url": {
					"raw": "https://92i7wtklb9.execute-api.us-east-1.amazonaws.com/qa/tre/api/cc",
					"protocol": "https",
					"host": [
						"92i7wtklb9",
						"execute-api",
						"us-east-1",
						"amazonaws",
						"com"
					],
					"path": [
						"qa",
						"tre",
						"api",
						"cc"
					]
				}
			},
			"response": []
		}
	]
}